module WB_level2

go 1.21

require (
	github.com/beevik/ntp v1.3.1 // indirect
	github.com/mitchellh/go-ps v1.0.0 // indirect
	golang.org/x/net v0.19.0 // indirect
	golang.org/x/sys v0.15.0 // indirect
)
